verilog/dump.vcd
$date
	Sat Feb 20 19:40:13 2021
$end
$version
	Icarus Verilog
$end
$timescale
	1ps
$end
$scope module mem_bench $end
$var wire 16 ! Dq [15:0] $end
$var wire 1 " ready $end
$var wire 1 # data_valid $end
$var wire 16 $ data_out [15:0] $end
$var wire 1 % We_n $end
$var wire 1 & Ras_n $end
$var wire 2 ' Dqm [1:0] $end
$var wire 1 ( Cs_n $end
$var wire 1 ) Clk $end
$var wire 1 * Cke $end
$var wire 1 + Cas_n $end
$var wire 2 , Ba [1:0] $end
$var wire 13 - Addr [12:0] $end
$var reg 1 . clk $end
$var reg 16 / data_in [15:0] $end
$var reg 1 0 enable $end
$var reg 16 1 memaddr [15:0] $end
$var reg 1 2 nrst $end
$var reg 1 3 rwn $end
$scope module mem $end
$var wire 16 4 addr [15:0] $end
$var wire 1 5 burststop_req $end
$var wire 1 . clk $end
$var wire 16 6 data_in [15:0] $end
$var wire 1 7 disable_active $end
$var wire 1 8 disable_autorefresh $end
$var wire 1 9 disable_precharge $end
$var wire 1 0 enable $end
$var wire 16 : io_sdram_dq [15:0] $end
$var wire 1 ; loadmod_req $end
$var wire 1 2 nrst $end
$var wire 1 < power_down $end
$var wire 1 = precharge_req $end
$var wire 1 3 rwn $end
$var wire 1 > selfrefresh_req $end
$var wire 1 ? write_done $end
$var wire 1 @ read_done $end
$var wire 1 % o_sdram_wen $end
$var wire 1 & o_sdram_rasn $end
$var wire 2 A o_sdram_dqm [1:0] $end
$var wire 1 ( o_sdram_csn $end
$var wire 1 ) o_sdram_clk $end
$var wire 1 * o_sdram_cke $end
$var wire 1 + o_sdram_casn $end
$var wire 2 B o_sdram_blkaddr [1:0] $end
$var wire 13 C o_sdram_addr [12:0] $end
$var wire 1 # o_data_valid $end
$var wire 1 D init_done $end
$var wire 1 E data_req $end
$var wire 16 F data_out [15:0] $end
$var wire 1 G busy $end
$var wire 1 H ack $end
$var reg 1 I adv $end
$var reg 3 J counter [2:0] $end
$var reg 1 K o_nrst $end
$var reg 1 " ready $end
$var reg 5 L state [4:0] $end
$scope module ram $end
$var wire 16 M cpu_datain_i [15:0] $end
$var wire 27 N i_addr [26:0] $end
$var wire 1 I i_adv $end
$var wire 1 5 i_burststop_req $end
$var wire 1 . i_clk $end
$var wire 16 O i_data [15:0] $end
$var wire 1 7 i_disable_active $end
$var wire 1 8 i_disable_autorefresh $end
$var wire 1 9 i_disable_precharge $end
$var wire 1 ; i_loadmod_req $end
$var wire 1 < i_power_down $end
$var wire 1 = i_precharge_req $end
$var wire 1 K i_rst $end
$var wire 1 3 i_rwn $end
$var wire 1 > i_selfrefresh_req $end
$var wire 16 P io_sdram_dq [15:0] $end
$var wire 1 G o_busy $end
$var wire 16 Q o_data [15:0] $end
$var wire 1 D o_init_done $end
$var wire 1 R sys_clk_i $end
$var wire 1 S sys_rst_i $end
$var wire 1 T sdrctl_busyn_i $end
$var wire 1 U refresh_count_done_i $end
$var wire 1 ? o_write_done $end
$var wire 1 % o_sdram_wen $end
$var wire 1 & o_sdram_rasn $end
$var wire 2 V o_sdram_dqm [1:0] $end
$var wire 1 ( o_sdram_csn $end
$var wire 1 ) o_sdram_clk $end
$var wire 1 * o_sdram_cke $end
$var wire 1 + o_sdram_casn $end
$var wire 2 W o_sdram_blkaddr [1:0] $end
$var wire 13 X o_sdram_addr [12:0] $end
$var wire 1 @ o_read_done $end
$var wire 1 # o_data_valid $end
$var wire 1 E o_data_req $end
$var wire 1 H o_ack $end
$var wire 1 Y init_done_i $end
$var wire 1 Z delay_done150us_i $end
$var wire 1 [ cpu_den_i $end
$var wire 16 \ cpu_dataout_i [15:0] $end
$var wire 1 ] autoref_ack_i $end
$var reg 1 ^ autorefresh_enable_i $end
$var reg 1 _ latch_ref_req_i $end
$var reg 1 ` power_down_reg1_i $end
$var reg 1 a refresh_req_i $end
$scope module U0 $end
$var wire 23 b i_addr [22:0] $end
$var wire 1 I i_adv $end
$var wire 1 5 i_burststop_req $end
$var wire 1 . i_clk $end
$var wire 16 c i_data [15:0] $end
$var wire 1 7 i_disable_active $end
$var wire 1 9 i_disable_precharge $end
$var wire 1 ; i_loadmod_req $end
$var wire 1 < i_power_down $end
$var wire 1 = i_precharge_req $end
$var wire 1 a i_refresh_req $end
$var wire 1 K i_rst $end
$var wire 1 3 i_rwn $end
$var wire 1 > i_selfrefresh_req $end
$var wire 16 d io_sdram_dq [15:0] $end
$var wire 16 e o_data [15:0] $end
$var wire 1 # o_data_valid $end
$var wire 1 [ o_den $end
$var wire 1 @ o_read_done $end
$var wire 1 ? o_write_done $end
$var wire 2 f o_sdram_dqm [1:0] $end
$var wire 1 E o_data_req $end
$var wire 1 Z i_delay_done_100us $end
$var wire 13 g col_addr_i [12:0] $end
$var reg 4 h clk_count_i [3:0] $end
$var reg 5 i cmd_fsm_states_i [4:0] $end
$var reg 16 j cpu2sdram_reg_i [15:0] $end
$var reg 16 k cpu_data_reg_i [15:0] $end
$var reg 1 l cpu_den_i $end
$var reg 4 m init_fsm_states_i [3:0] $end
$var reg 1 H o_ack $end
$var reg 1 ] o_autoref_ack $end
$var reg 1 T o_busy $end
$var reg 1 Y o_init_done $end
$var reg 12 n o_sdram_addr [11:0] $end
$var reg 2 o o_sdram_blkaddr [1:0] $end
$var reg 1 + o_sdram_casn $end
$var reg 1 * o_sdram_cke $end
$var reg 1 ( o_sdram_csn $end
$var reg 1 & o_sdram_rasn $end
$var reg 1 % o_sdram_wen $end
$var reg 1 p read_data_req_i $end
$var reg 1 q read_done_i $end
$var reg 1 r read_done_reg_i $end
$var reg 10 s read_req_cnt_i [9:0] $end
$var reg 1 t read_req_cnt_rst_i $end
$var reg 1 u reset_clk_counter_i $end
$var reg 1 v sdram_dq_en_i $end
$var reg 16 w sdram_dq_reg_i [15:0] $end
$var reg 1 x sdram_dqm_i $end
$var reg 276 y state_ASCII [275:0] $end
$var reg 1 z write_done_i $end
$var reg 1 { write_done_reg_i $end
$scope begin genblk3 $end
$upscope $end
$upscope $end
$scope module U1 $end
$var wire 1 R i_sys_clk $end
$var wire 1 S i_sys_rst $end
$var wire 1 Z o_lfsr_256_done $end
$var wire 1 | lfsr_64_done_i $end
$scope module U1 $end
$var wire 1 R i_sys_clk $end
$var wire 1 S i_sys_rst $end
$var wire 1 } lfsr_d0_i $end
$var wire 1 ~ lfsr_equal $end
$var reg 6 !" lfsr_reg_i [5:0] $end
$var reg 1 | o_lfsr_64_done $end
$upscope $end
$scope module U5 $end
$var wire 1 | i_sys_clk $end
$var wire 1 S i_sys_rst $end
$var wire 1 "" lfsr_d0_i $end
$var wire 1 #" lfsr_256_equal_i $end
$var reg 8 $" lfsr_reg_i [7:0] $end
$var reg 1 Z o_lfsr_256_done $end
$upscope $end
$upscope $end
$scope module U2 $end
$var wire 1 ^ i_autorefresh_enable $end
$var wire 1 R i_sys_clk $end
$var wire 1 S i_sys_rst $end
$var reg 1 U o_refresh_count_done $end
$scope begin genblk3 $end
$var wire 1 %" lfsr_lsb_i $end
$var wire 1 &" lfsr_count_match_i $end
$var reg 11 '" lfsr_reg_i [10:0] $end
$upscope $end
$upscope $end
$upscope $end
$upscope $end
$scope module ram0 $end
$var wire 1 (" Active_enable $end
$var wire 13 )" Addr [12:0] $end
$var wire 1 *" Aref_enable $end
$var wire 2 +" Ba [1:0] $end
$var wire 1 ," Burst_length_1 $end
$var wire 1 -" Burst_length_2 $end
$var wire 1 ." Burst_length_4 $end
$var wire 1 /" Burst_length_8 $end
$var wire 1 0" Burst_length_f $end
$var wire 1 1" Burst_term $end
$var wire 1 2" Cas_latency_2 $end
$var wire 1 3" Cas_latency_3 $end
$var wire 1 + Cas_n $end
$var wire 1 * Cke $end
$var wire 1 ) Clk $end
$var wire 1 ( Cs_n $end
$var wire 1 4" Debug $end
$var wire 16 5" Dq [15:0] $end
$var wire 1 6" Dq_chk $end
$var wire 2 7" Dqm [1:0] $end
$var wire 1 8" Mode_reg_enable $end
$var wire 1 9" Prech_enable $end
$var wire 1 & Ras_n $end
$var wire 1 :" Read_enable $end
$var wire 1 % We_n $end
$var wire 1 ;" Write_enable $end
$var wire 1 <" Write_burst_mode $end
$var reg 1 =" Act_b0 $end
$var reg 1 >" Act_b1 $end
$var reg 1 ?" Act_b2 $end
$var reg 1 @" Act_b3 $end
$var reg 13 A" B0_row_addr [12:0] $end
$var reg 13 B" B1_row_addr [12:0] $end
$var reg 13 C" B2_row_addr [12:0] $end
$var reg 13 D" B3_row_addr [12:0] $end
$var reg 2 E" Bank [1:0] $end
$var reg 9 F" Burst_counter [8:0] $end
$var reg 1 G" CkeZ $end
$var reg 9 H" Col [8:0] $end
$var reg 9 I" Col_brst [8:0] $end
$var reg 9 J" Col_temp [8:0] $end
$var reg 1 K" Data_in_enable $end
$var reg 1 L" Data_out_enable $end
$var reg 16 M" Dq_dqm [15:0] $end
$var reg 16 N" Dq_reg [15:0] $end
$var reg 2 O" Dqm_reg0 [1:0] $end
$var reg 2 P" Dqm_reg1 [1:0] $end
$var reg 64 Q" MRD_chk [63:0] $end
$var reg 13 R" Mode_reg [12:0] $end
$var reg 1 S" Pc_b0 $end
$var reg 1 T" Pc_b1 $end
$var reg 1 U" Pc_b2 $end
$var reg 1 V" Pc_b3 $end
$var reg 2 W" Prev_bank [1:0] $end
$var reg 64 X" RAS_chk0 [63:0] $end
$var reg 64 Y" RAS_chk1 [63:0] $end
$var reg 64 Z" RAS_chk2 [63:0] $end
$var reg 64 [" RAS_chk3 [63:0] $end
$var reg 64 \" RCD_chk0 [63:0] $end
$var reg 64 ]" RCD_chk1 [63:0] $end
$var reg 64 ^" RCD_chk2 [63:0] $end
$var reg 64 _" RCD_chk3 [63:0] $end
$var reg 64 `" RC_chk0 [63:0] $end
$var reg 64 a" RC_chk1 [63:0] $end
$var reg 64 b" RC_chk2 [63:0] $end
$var reg 64 c" RC_chk3 [63:0] $end
$var reg 64 d" RFC_chk [63:0] $end
$var reg 64 e" RP_chk0 [63:0] $end
$var reg 64 f" RP_chk1 [63:0] $end
$var reg 64 g" RP_chk2 [63:0] $end
$var reg 64 h" RP_chk3 [63:0] $end
$var reg 64 i" RRD_chk [63:0] $end
$var reg 2 j" RW_interrupt_bank [1:0] $end
$var reg 13 k" Row [12:0] $end
$var reg 1 l" Sys_clk $end
$scope task Burst_decode $end
$upscope $end
$upscope $end
$upscope $end
$enddefinitions $end
#0
$dumpvars
xl"
bx k"
bx j"
b0 i"
b0 h"
b0 g"
b0 f"
b0 e"
b0 d"
b0 c"
b0 b"
b0 a"
b0 `"
b0 _"
b0 ^"
b0 ]"
b0 \"
b0 ["
b0 Z"
b0 Y"
b0 X"
bx W"
0V"
0U"
0T"
0S"
bx R"
b0 Q"
bx P"
bx O"
bz N"
bx M"
0L"
0K"
bx J"
bx I"
bx H"
xG"
bx F"
bx E"
bx D"
bx C"
bx B"
bx A"
1@"
1?"
1>"
1="
x<"
x;"
x:"
x9"
x8"
bx 7"
06"
bx 5"
14"
x3"
x2"
x1"
x0"
x/"
x."
x-"
x,"
bx +"
x*"
bzxxxxxxxxxxxx )"
x("
bx '"
x&"
x%"
bx $"
x#"
x""
bx !"
x~
x}
x|
x{
xz
bx y
xx
bx w
xv
xu
xt
bx s
xr
xq
xp
bx o
bx n
bx m
xl
bx k
bx j
bx i
bx h
bz100xxxxxxxx g
bx f
bx e
bx d
bx c
b0xxxxxxxxxxxxxxxx b
xa
x`
x_
x^
x]
bx \
x[
xZ
xY
bzxxxxxxxxxxxx X
bx W
bx V
xU
xT
xS
xR
bx Q
bx P
bx O
b0xxxxxxxxxxxxxxxx N
bx M
bx L
xK
bx J
xI
xH
xG
bx F
xE
xD
bzxxxxxxxxxxxx C
bx B
bx A
x@
x?
0>
0=
0<
0;
bx :
09
08
07
bx 6
05
bx 4
x3
x2
bx 1
x0
bx /
x.
bzxxxxxxxxxxxx -
bx ,
x+
x*
x)
x(
bx '
x&
x%
bx $
x#
x"
bx !
$end
#1000
bz10000000000 g
b0 b
b0 N
0"
0I
b0 J
b0 L
b1111 /
b1111 6
b1111 O
b1111 c
03
b0 1
b0 4
02
0u
#2000
b1111 M
#3750
0)
0R
0.
#7500
1%"
1}
1""
0@
0?
0U
0&"
b0 '"
0|
0~
b0 !"
0Z
0#"
b0 $"
0r
0{
0q
0z
1S
1K
0`
1)
b1 J
1R
1.
#8500
0("
0*"
0:"
0E
01"
08"
09"
0;"
b1000011010011010100010001011111010100110101010001000001010101000100010101011111010010010100010001001100010001010010000000100000001000000010000000100000001000000010000000100000001000000010000000100000001000000010000000100000001000000010000000100000001000000010000000100000 y
0_
b1111111111 s
0v
b0 j
bz111111111111 -
bz111111111111 C
bz111111111111 X
bz111111111111 )"
b111111111111 n
b11 ,
b11 B
b11 W
b11 o
b11 +"
1*
0(
1&
1+
1%
b0 '
b0 A
b0 V
b0 f
b0 7"
0x
b0 m
0D
0Y
b0 i
0]
0H
0G
0T
0l
b0 k
0t
0p
0a
0^
#9500
1u
bz !
bz :
bz P
bz d
bz 5"
0[
0#
#11250
0l"
0)
0R
0.
#15000
b1 Q"
b0 P"
1G"
xl"
1)
b10 J
1R
1.
#16000
12
bz w
b0 h
#17000
bz \
bz e
#18000
bz $
bz F
bz Q
#18750
0l"
0)
0R
0.
#22500
b10 Q"
b0 O"
1l"
1)
b11 J
1R
1.
#26250
0l"
0)
0R
0.
#30000
b1 L
0S
0K
b11 Q"
1l"
1)
b0 J
1R
1.
#33750
0l"
0)
0R
0.
#37500
b1 !"
b100 Q"
1l"
1)
1R
1.
#38500
1t
b1111 k
#41250
0l"
0)
0R
0.
#45000
b11 !"
b101 Q"
1l"
1)
1R
1.
#46000
b1111 j
#48750
0l"
0)
0R
0.
#52500
b111 !"
b110 Q"
1l"
1)
1R
1.
#56250
0l"
0)
0R
0.
#60000
b1111 !"
b111 Q"
1l"
1)
1R
1.
#63750
0l"
0)
0R
0.
#67500
0}
b11111 !"
b1000 Q"
1l"
1)
1R
1.
#71250
0l"
0)
0R
0.
#75000
1}
b111110 !"
b1001 Q"
1l"
1)
1R
1.
#78750
0l"
0)
0R
0.
#82500
b111101 !"
b1010 Q"
1l"
1)
1R
1.
#86250
0l"
0)
0R
0.
#90000
b111011 !"
b1011 Q"
1l"
1)
1R
1.
#93750
0l"
0)
0R
0.
#97500
b110111 !"
b1100 Q"
1l"
1)
1R
1.
#101250
0l"
0)
0R
0.
#105000
0}
b101111 !"
b1101 Q"
1l"
1)
1R
1.
#108750
0l"
0)
0R
0.
#112500
b11110 !"
b1110 Q"
1l"
1)
1R
1.
#116250
0l"
0)
0R
0.
#120000
1}
b111100 !"
b1111 Q"
1l"
1)
1R
1.
#123750
0l"
0)
0R
0.
#127500
b111001 !"
b10000 Q"
1l"
1)
1R
1.
#131250
0l"
0)
0R
0.
#135000
b110011 !"
b10001 Q"
1l"
1)
1R
1.
#138750
0l"
0)
0R
0.
#142500
0}
b100111 !"
b10010 Q"
1l"
1)
1R
1.
#146250
0l"
0)
0R
0.
#150000
1}
b1110 !"
b10011 Q"
1l"
1)
1R
1.
#153750
0l"
0)
0R
0.
#157500
0}
b11101 !"
b10100 Q"
1l"
1)
1R
1.
#161250
0l"
0)
0R
0.
#165000
1}
b111010 !"
b10101 Q"
1l"
1)
1R
1.
#168750
0l"
0)
0R
0.
#172500
b110101 !"
b10110 Q"
1l"
1)
1R
1.
#176250
0l"
0)
0R
0.
#180000
0}
b101011 !"
b10111 Q"
1l"
1)
1R
1.
#183750
0l"
0)
0R
0.
#187500
b10110 !"
b11000 Q"
1l"
1)
1R
1.
#191250
0l"
0)
0R
0.
#195000
b101100 !"
b11001 Q"
1l"
1)
1R
1.
#198750
0l"
0)
0R
0.
#202500
b11000 !"
b11010 Q"
1l"
1)
1R
1.
#206250
0l"
0)
0R
0.
#210000
1}
b110000 !"
b11011 Q"
1l"
1)
1R
1.
#213750
0l"
0)
0R
0.
#217500
0}
b100001 !"
b11100 Q"
1l"
1)
1R
1.
#221250
0l"
0)
0R
0.
#225000
1}
b10 !"
b11101 Q"
1l"
1)
1R
1.
#228750
0l"
0)
0R
0.
#232500
b101 !"
b11110 Q"
1l"
1)
1R
1.
#236250
0l"
0)
0R
0.
#240000
b1011 !"
b11111 Q"
1l"
1)
1R
1.
#243750
0l"
0)
0R
0.
#247500
0}
b10111 !"
b100000 Q"
1l"
1)
1R
1.
#251250
0l"
0)
0R
0.
#255000
b101110 !"
b100001 Q"
1l"
1)
1R
1.
#258750
0l"
0)
0R
0.
#262500
b11100 !"
b100010 Q"
1l"
1)
1R
1.
#266250
0l"
0)
0R
0.
#270000
1}
b111000 !"
b100011 Q"
1l"
1)
1R
1.
#273750
0l"
0)
0R
0.
#277500
b110001 !"
b100100 Q"
1l"
1)
1R
1.
#281250
0l"
0)
0R
0.
#285000
0}
b100011 !"
b100101 Q"
1l"
1)
1R
1.
#288750
0l"
0)
0R
0.
#292500
1}
b110 !"
b100110 Q"
1l"
1)
1R
1.
#296250
0l"
0)
0R
0.
#300000
b1101 !"
b100111 Q"
1l"
1)
1R
1.
#303750
0l"
0)
0R
0.
#307500
0}
b11011 !"
b101000 Q"
1l"
1)
1R
1.
#311250
0l"
0)
0R
0.
#315000
1}
b110110 !"
b101001 Q"
1l"
1)
1R
1.
#318750
0l"
0)
0R
0.
#322500
0}
b101101 !"
b101010 Q"
1l"
1)
1R
1.
#326250
0l"
0)
0R
0.
#330000
b11010 !"
b101011 Q"
1l"
1)
1R
1.
#333750
0l"
0)
0R
0.
#337500
1}
b110100 !"
b101100 Q"
1l"
1)
1R
1.
#341250
0l"
0)
0R
0.
#345000
0}
b101001 !"
b101101 Q"
1l"
1)
1R
1.
#348750
0l"
0)
0R
0.
#352500
b10010 !"
b101110 Q"
1l"
1)
1R
1.
#356250
0l"
0)
0R
0.
#360000
b100100 !"
b101111 Q"
1l"
1)
1R
1.
#363750
0l"
0)
0R
0.
#367500
1}
b1000 !"
b110000 Q"
1l"
1)
1R
1.
#371250
0l"
0)
0R
0.
#375000
0}
b10001 !"
b110001 Q"
1l"
1)
1R
1.
#378750
0l"
0)
0R
0.
#382500
b100010 !"
b110010 Q"
1l"
1)
1R
1.
#386250
0l"
0)
0R
0.
#390000
1}
b100 !"
b110011 Q"
1l"
1)
1R
1.
#393750
0l"
0)
0R
0.
#397500
b1001 !"
b110100 Q"
1l"
1)
1R
1.
#401250
0l"
0)
0R
0.
#405000
0}
b10011 !"
b110101 Q"
1l"
1)
1R
1.
#408750
0l"
0)
0R
0.
#412500
b100110 !"
b110110 Q"
1l"
1)
1R
1.
#416250
0l"
0)
0R
0.
#420000
1}
b1100 !"
b110111 Q"
1l"
1)
1R
1.
#423750
0l"
0)
0R
0.
#427500
0}
b11001 !"
b111000 Q"
1l"
1)
1R
1.
#431250
0l"
0)
0R
0.
#435000
1}
b110010 !"
b111001 Q"
1l"
1)
1R
1.
#438750
0l"
0)
0R
0.
#442500
0}
b100101 !"
b111010 Q"
1l"
1)
1R
1.
#446250
0l"
0)
0R
0.
#450000
1}
b1010 !"
b111011 Q"
1l"
1)
1R
1.
#453750
0l"
0)
0R
0.
#457500
0}
b10101 !"
b111100 Q"
1l"
1)
1R
1.
#461250
0l"
0)
0R
0.
#465000
b101010 !"
b111101 Q"
1l"
1)
1R
1.
#468750
0l"
0)
0R
0.
#472500
b10100 !"
b111110 Q"
1l"
1)
1R
1.
#476250
0l"
0)
0R
0.
#480000
b101000 !"
b111111 Q"
1l"
1)
1R
1.
#483750
0l"
0)
0R
0.
#487500
b10000 !"
b1000000 Q"
1l"
1)
1R
1.
#491250
0l"
0)
0R
0.
#495000
1~
b100000 !"
b1000001 Q"
1l"
1)
1R
1.
#498750
0l"
0)
0R
0.
#502500
b1 $"
1}
1|
0~
b0 !"
b1000010 Q"
1l"
1)
1R
1.
#506250
0l"
0)
0R
0.
#510000
0|
b1 !"
b1000011 Q"
1l"
1)
1R
1.
#513750
0l"
0)
0R
0.
#517500
b11 !"
b1000100 Q"
1l"
1)
1R
1.
#521250
0l"
0)
0R
0.
#525000
b111 !"
b1000101 Q"
1l"
1)
1R
1.
#528750
0l"
0)
0R
0.
#532500
b1111 !"
b1000110 Q"
1l"
1)
1R
1.
#536250
0l"
0)
0R
0.
#540000
0}
b11111 !"
b1000111 Q"
1l"
1)
1R
1.
#543750
0l"
0)
0R
0.
#547500
1}
b111110 !"
b1001000 Q"
1l"
1)
1R
1.
#551250
0l"
0)
0R
0.
#555000
b111101 !"
b1001001 Q"
1l"
1)
1R
1.
#558750
0l"
0)
0R
0.
#562500
b111011 !"
b1001010 Q"
1l"
1)
1R
1.
#566250
0l"
0)
0R
0.
#570000
b110111 !"
b1001011 Q"
1l"
1)
1R
1.
#573750
0l"
0)
0R
0.
#577500
0}
b101111 !"
b1001100 Q"
1l"
1)
1R
1.
#581250
0l"
0)
0R
0.
#585000
b11110 !"
b1001101 Q"
1l"
1)
1R
1.
#588750
0l"
0)
0R
0.
#592500
1}
b111100 !"
b1001110 Q"
1l"
1)
1R
1.
#596250
0l"
0)
0R
0.
#600000
b111001 !"
b1001111 Q"
1l"
1)
1R
1.
#603750
0l"
0)
0R
0.
#607500
b110011 !"
b1010000 Q"
1l"
1)
1R
1.
#611250
0l"
0)
0R
0.
#615000
0}
b100111 !"
b1010001 Q"
1l"
1)
1R
1.
#618750
0l"
0)
0R
0.
#622500
1}
b1110 !"
b1010010 Q"
1l"
1)
1R
1.
#626250
0l"
0)
0R
0.
#630000
0}
b11101 !"
b1010011 Q"
1l"
1)
1R
1.
#633750
0l"
0)
0R
0.
#637500
1}
b111010 !"
b1010100 Q"
1l"
1)
1R
1.
#641250
0l"
0)
0R
0.
#645000
b110101 !"
b1010101 Q"
1l"
1)
1R
1.
#648750
0l"
0)
0R
0.
#652500
0}
b101011 !"
b1010110 Q"
1l"
1)
1R
1.
#656250
0l"
0)
0R
0.
#660000
b10110 !"
b1010111 Q"
1l"
1)
1R
1.
#663750
0l"
0)
0R
0.
#667500
b101100 !"
b1011000 Q"
1l"
1)
1R
1.
#671250
0l"
0)
0R
0.
#675000
b11000 !"
b1011001 Q"
1l"
1)
1R
1.
#678750
0l"
0)
0R
0.
#682500
1}
b110000 !"
b1011010 Q"
1l"
1)
1R
1.
#686250
0l"
0)
0R
0.
#690000
0}
b100001 !"
b1011011 Q"
1l"
1)
1R
1.
#693750
0l"
0)
0R
0.
#697500
1}
b10 !"
b1011100 Q"
1l"
1)
1R
1.
#701250
0l"
0)
0R
0.
#705000
b101 !"
b1011101 Q"
1l"
1)
1R
1.
#708750
0l"
0)
0R
0.
#712500
b1011 !"
b1011110 Q"
1l"
1)
1R
1.
#716250
0l"
0)
0R
0.
#720000
0}
b10111 !"
b1011111 Q"
1l"
1)
1R
1.
#723750
0l"
0)
0R
0.
#727500
b101110 !"
b1100000 Q"
1l"
1)
1R
1.
#731250
0l"
0)
0R
0.
#735000
b11100 !"
b1100001 Q"
1l"
1)
1R
1.
#738750
0l"
0)
0R
0.
#742500
1}
b111000 !"
b1100010 Q"
1l"
1)
1R
1.
#746250
0l"
0)
0R
0.
#750000
b110001 !"
b1100011 Q"
1l"
1)
1R
1.
#753750
0l"
0)
0R
0.
#757500
0}
b100011 !"
b1100100 Q"
1l"
1)
1R
1.
#761250
0l"
0)
0R
0.
#765000
1}
b110 !"
b1100101 Q"
1l"
1)
1R
1.
#768750
0l"
0)
0R
0.
#772500
b1101 !"
b1100110 Q"
1l"
1)
1R
1.
#776250
0l"
0)
0R
0.
#780000
0}
b11011 !"
b1100111 Q"
1l"
1)
1R
1.
#783750
0l"
0)
0R
0.
#787500
1}
b110110 !"
b1101000 Q"
1l"
1)
1R
1.
#791250
0l"
0)
0R
0.
#795000
0}
b101101 !"
b1101001 Q"
1l"
1)
1R
1.
#798750
0l"
0)
0R
0.
#802500
b11010 !"
b1101010 Q"
1l"
1)
1R
1.
#806250
0l"
0)
0R
0.
#810000
1}
b110100 !"
b1101011 Q"
1l"
1)
1R
1.
#813750
0l"
0)
0R
0.
#817500
0}
b101001 !"
b1101100 Q"
1l"
1)
1R
1.
#821250
0l"
0)
0R
0.
#825000
b10010 !"
b1101101 Q"
1l"
1)
1R
1.
#828750
0l"
0)
0R
0.
#832500
b100100 !"
b1101110 Q"
1l"
1)
1R
1.
#836250
0l"
0)
0R
0.
#840000
1}
b1000 !"
b1101111 Q"
1l"
1)
1R
1.
#843750
0l"
0)
0R
0.
#847500
0}
b10001 !"
b1110000 Q"
1l"
1)
1R
1.
#851250
0l"
0)
0R
0.
#855000
b100010 !"
b1110001 Q"
1l"
1)
1R
1.
#858750
0l"
0)
0R
0.
#862500
1}
b100 !"
b1110010 Q"
1l"
1)
1R
1.
#866250
0l"
0)
0R
0.
#870000
b1001 !"
b1110011 Q"
1l"
1)
1R
1.
#873750
0l"
0)
0R
0.
#877500
0}
b10011 !"
b1110100 Q"
1l"
1)
1R
1.
#881250
0l"
0)
0R
0.
#885000
b100110 !"
b1110101 Q"
1l"
1)
1R
1.
#888750
0l"
0)
0R
0.
#892500
1}
b1100 !"
b1110110 Q"
1l"
1)
1R
1.
#896250
0l"
0)
0R
0.
#900000
0}
b11001 !"
b1110111 Q"
1l"
1)
1R
1.
#903750
0l"
0)
0R
0.
#907500
1}
b110010 !"
b1111000 Q"
1l"
1)
1R
1.
#911250
0l"
0)
0R
0.
#915000
0}
b100101 !"
b1111001 Q"
1l"
1)
1R
1.
#918750
0l"
0)
0R
0.
#922500
1}
b1010 !"
b1111010 Q"
1l"
1)
1R
1.
#926250
0l"
0)
0R
0.
#930000
0}
b10101 !"
b1111011 Q"
1l"
1)
1R
1.
#933750
0l"
0)
0R
0.
#937500
b101010 !"
b1111100 Q"
1l"
1)
1R
1.
#941250
0l"
0)
0R
0.
#945000
b10100 !"
b1111101 Q"
1l"
1)
1R
1.
#948750
0l"
0)
0R
0.
#952500
b101000 !"
b1111110 Q"
1l"
1)
1R
1.
#956250
0l"
0)
0R
0.
#960000
b10000 !"
b1111111 Q"
1l"
1)
1R
1.
#963750
0l"
0)
0R
0.
#967500
1~
b100000 !"
b10000000 Q"
1l"
1)
1R
1.
#971250
0l"
0)
0R
0.
#975000
b11 $"
1}
1|
0~
b0 !"
b10000001 Q"
1l"
1)
1R
1.
#978750
0l"
0)
0R
0.
#982500
0|
b1 !"
b10000010 Q"
1l"
1)
1R
1.
#986250
0l"
0)
0R
0.
#990000
b11 !"
b10000011 Q"
1l"
1)
1R
1.
#993750
0l"
0)
0R
0.
#997500
b111 !"
b10000100 Q"
1l"
1)
1R
1.
#1001250
0l"
0)
0R
0.
#1005000
b1111 !"
b10000101 Q"
1l"
1)
1R
1.
#1008750
0l"
0)
0R
0.
#1012500
0}
b11111 !"
b10000110 Q"
1l"
1)
1R
1.
#1016250
0l"
0)
0R
0.
#1020000
1}
b111110 !"
b10000111 Q"
1l"
1)
1R
1.
#1023750
0l"
0)
0R
0.
#1027500
b111101 !"
b10001000 Q"
1l"
1)
1R
1.
#1031250
0l"
0)
0R
0.
#1035000
b111011 !"
b10001001 Q"
1l"
1)
1R
1.
#1038750
0l"
0)
0R
0.
#1042500
b110111 !"
b10001010 Q"
1l"
1)
1R
1.
#1046250
0l"
0)
0R
0.
#1050000
0}
b101111 !"
b10001011 Q"
1l"
1)
1R
1.
#1053750
0l"
0)
0R
0.
#1057500
b11110 !"
b10001100 Q"
1l"
1)
1R
1.
#1061250
0l"
0)
0R
0.
#1065000
1}
b111100 !"
b10001101 Q"
1l"
1)
1R
1.
#1068750
0l"
0)
0R
0.
#1072500
b111001 !"
b10001110 Q"
1l"
1)
1R
1.
#1076250
0l"
0)
0R
0.
#1080000
b110011 !"
b10001111 Q"
1l"
1)
1R
1.
#1083750
0l"
0)
0R
0.
#1087500
0}
b100111 !"
b10010000 Q"
1l"
1)
1R
1.
#1091250
0l"
0)
0R
0.
#1095000
1}
b1110 !"
b10010001 Q"
1l"
1)
1R
1.
#1098750
0l"
0)
0R
0.
#1102500
0}
b11101 !"
b10010010 Q"
1l"
1)
1R
1.
#1106250
0l"
0)
0R
0.
#1110000
1}
b111010 !"
b10010011 Q"
1l"
1)
1R
1.
#1113750
0l"
0)
0R
0.
#1117500
b110101 !"
b10010100 Q"
1l"
1)
1R
1.
#1121250
0l"
0)
0R
0.
#1125000
0}
b101011 !"
b10010101 Q"
1l"
1)
1R
1.
#1128750
0l"
0)
0R
0.
#1132500
b10110 !"
b10010110 Q"
1l"
1)
1R
1.
#1136250
0l"
0)
0R
0.
#1140000
b101100 !"
b10010111 Q"
1l"
1)
1R
1.
#1143750
0l"
0)
0R
0.
#1147500
b11000 !"
b10011000 Q"
1l"
1)
1R
1.
#1151250
0l"
0)
0R
0.
#1155000
1}
b110000 !"
b10011001 Q"
1l"
1)
1R
1.
#1158750
0l"
0)
0R
0.
#1162500
0}
b100001 !"
b10011010 Q"
1l"
1)
1R
1.
#1166250
0l"
0)
0R
0.
#1170000
1}
b10 !"
b10011011 Q"
1l"
1)
1R
1.
#1173750
0l"
0)
0R
0.
#1177500
b101 !"
b10011100 Q"
1l"
1)
1R
1.
#1181250
0l"
0)
0R
0.
#1185000
b1011 !"
b10011101 Q"
1l"
1)
1R
1.
#1188750
0l"
0)
0R
0.
#1192500
0}
b10111 !"
b10011110 Q"
1l"
1)
1R
1.
#1196250
0l"
0)
0R
0.
#1200000
b101110 !"
b10011111 Q"
1l"
1)
1R
1.
#1203750
0l"
0)
0R
0.
#1207500
b11100 !"
b10100000 Q"
1l"
1)
1R
1.
#1211250
0l"
0)
0R
0.
#1215000
1}
b111000 !"
b10100001 Q"
1l"
1)
1R
1.
#1218750
0l"
0)
0R
0.
